Spatio-temporal demand and capacity relationships with performance - Random Forest
…
# columns that contain nas
colSums(is.na(dc_data)) |> 
  tibble::enframe()

# A tibble: 52 × 2
   name                                                                    value
   <chr>                                                                   <dbl>
 1 org                                                                         0
 2 year                                                                        0
 3 Proportion of completed pathways greater than 18 weeks from referral (…     0
 4 Bed availability - day - General & Acute                                    0
 5 Workforce FTEs per 10,000 population (Professionally qualified clinica…     0
 6 Workforce FTEs per 10,000 population (HCHS Doctors)                         0
 7 Workforce FTEs per 10,000 population (Consultant)                           0
 8 Workforce FTEs per 10,000 population (Associate Specialist)                 0
 9 Workforce FTEs per 10,000 population (Specialty Doctor)                     0
10 Workforce FTEs per 10,000 population (Staff Grade)                         28
# ℹ 42 more rows
…
